{
	"info": {
		"_postman_id": "c092cd8b-c816-463f-91a6-a74050f829b3",
		"name": "Datautama",
		"schema": "https://schema.getpostman.com/json/collection/v2.1.0/collection.json"
	},
	"item": [
		{
			"name": "Products",
			"item": [
				{
					"name": "Product Paginate and Search",
					"protocolProfileBehavior": {
						"disabledSystemHeaders": {
							"accept": true
						}
					},
					"request": {
						"auth": {
							"type": "bearer",
							"bearer": [
								{
									"key": "token",
									"value": "{{token}}",
									"type": "string"
								}
							]
						},
						"method": "GET",
						"header": [
							{
								"key": "Accept",
								"value": "application/json",
								"type": "default"
							}
						],
						"url": {
							"raw": "{{host}}/api/product?search=con&page=1",
							"host": [
								"{{host}}"
							],
							"path": [
								"api",
								"product"
							],
							"query": [
								{
									"key": "search",
									"value": "con"
								},
								{
									"key": "page",
									"value": "1"
								}
							]
						}
					},
					"response": []
				},
				{
					"name": "Product Store",
					"protocolProfileBehavior": {
						"disabledSystemHeaders": {
							"accept": true
						}
					},
					"request": {
						"auth": {
							"type": "bearer",
							"bearer": [
								{
									"key": "token",
									"value": "{{token}}",
									"type": "string"
								}
							]
						},
						"method": "POST",
						"header": [
							{
								"key": "Accept",
								"value": "application/json",
								"type": "default"
							}
						],
						"body": {
							"mode": "urlencoded",
							"urlencoded": [
								{
									"key": "name",
									"value": "contoh",
									"type": "default"
								},
								{
									"key": "price",
									"value": "1000",
									"type": "default"
								},
								{
									"key": "stock",
									"value": "10",
									"type": "default"
								},
								{
									"key": "description",
									"value": "text text text text text text text text text ",
									"type": "default"
								}
							]
						},
						"url": {
							"raw": "{{host}}/api/product/store",
							"host": [
								"{{host}}"
							],
							"path": [
								"api",
								"product",
								"store"
							]
						}
					},
					"response": []
				},
				{
					"name": "Product Update",
					"protocolProfileBehavior": {
						"disabledSystemHeaders": {
							"accept": true
						}
					},
					"request": {
						"auth": {
							"type": "bearer",
							"bearer": [
								{
									"key": "token",
									"value": "{{token}}",
									"type": "string"
								}
							]
						},
						"method": "POST",
						"header": [
							{
								"key": "Accept",
								"value": "application/json",
								"type": "default"
							}
						],
						"body": {
							"mode": "urlencoded",
							"urlencoded": [
								{
									"key": "name",
									"value": "contoh dua",
									"type": "default"
								},
								{
									"key": "price",
									"value": "1000",
									"type": "default"
								},
								{
									"key": "stock",
									"value": "10",
									"type": "default"
								},
								{
									"key": "description",
									"value": "text text text text text text text text text ",
									"type": "default"
								}
							]
						},
						"url": {
							"raw": "{{host}}/api/product/update/21",
							"host": [
								"{{host}}"
							],
							"path": [
								"api",
								"product",
								"update",
								"21"
							]
						}
					},
					"response": []
				},
				{
					"name": "Product Delete",
					"protocolProfileBehavior": {
						"disabledSystemHeaders": {
							"accept": true
						}
					},
					"request": {
						"auth": {
							"type": "bearer",
							"bearer": [
								{
									"key": "token",
									"value": "{{token}}",
									"type": "string"
								}
							]
						},
						"method": "POST",
						"header": [
							{
								"key": "Accept",
								"value": "application/json",
								"type": "default"
							}
						],
						"body": {
							"mode": "urlencoded",
							"urlencoded": [
								{
									"key": "id",
									"value": "21",
									"type": "default"
								}
							]
						},
						"url": {
							"raw": "{{host}}/api/product/delete",
							"host": [
								"{{host}}"
							],
							"path": [
								"api",
								"product",
								"delete"
							]
						}
					},
					"response": []
				},
				{
					"name": "Product Show",
					"protocolProfileBehavior": {
						"disabledSystemHeaders": {
							"accept": true
						}
					},
					"request": {
						"auth": {
							"type": "bearer",
							"bearer": [
								{
									"key": "token",
									"value": "{{token}}",
									"type": "string"
								}
							]
						},
						"method": "GET",
						"header": [
							{
								"key": "Accept",
								"value": "application/json",
								"type": "default"
							}
						],
						"url": {
							"raw": "{{host}}/api/product/show/2",
							"host": [
								"{{host}}"
							],
							"path": [
								"api",
								"product",
								"show",
								"2"
							]
						}
					},
					"response": []
				}
			]
		},
		{
			"name": "Transactions",
			"item": [
				{
					"name": "Transaction Paginate and Search",
					"protocolProfileBehavior": {
						"disabledSystemHeaders": {
							"accept": true
						}
					},
					"request": {
						"auth": {
							"type": "bearer",
							"bearer": [
								{
									"key": "token",
									"value": "{{token}}",
									"type": "string"
								}
							]
						},
						"method": "GET",
						"header": [
							{
								"key": "Accept",
								"value": "application/json",
								"type": "default"
							}
						],
						"url": {
							"raw": "{{host}}/api/transaction",
							"host": [
								"{{host}}"
							],
							"path": [
								"api",
								"transaction"
							],
							"query": [
								{
									"key": "search",
									"value": "con",
									"disabled": true
								},
								{
									"key": "page",
									"value": "1",
									"disabled": true
								}
							]
						}
					},
					"response": []
				},
				{
					"name": "Transaction Store",
					"protocolProfileBehavior": {
						"disabledSystemHeaders": {
							"accept": true
						}
					},
					"request": {
						"auth": {
							"type": "bearer",
							"bearer": [
								{
									"key": "token",
									"value": "{{token}}",
									"type": "string"
								}
							]
						},
						"method": "POST",
						"header": [
							{
								"key": "Accept",
								"value": "application/json",
								"type": "default"
							}
						],
						"body": {
							"mode": "urlencoded",
							"urlencoded": [
								{
									"key": "price",
									"value": "1000",
									"type": "default"
								},
								{
									"key": "quantity",
									"value": "10",
									"type": "default"
								},
								{
									"key": "payment_amount",
									"value": "10000000",
									"type": "default"
								},
								{
									"key": "product_id",
									"value": "11",
									"type": "default"
								}
							]
						},
						"url": {
							"raw": "{{host}}/api/transaction/store",
							"host": [
								"{{host}}"
							],
							"path": [
								"api",
								"transaction",
								"store"
							]
						}
					},
					"response": []
				},
				{
					"name": "Transaction Update",
					"protocolProfileBehavior": {
						"disabledSystemHeaders": {
							"accept": true
						}
					},
					"request": {
						"auth": {
							"type": "bearer",
							"bearer": [
								{
									"key": "token",
									"value": "{{token}}",
									"type": "string"
								}
							]
						},
						"method": "POST",
						"header": [
							{
								"key": "Accept",
								"value": "application/json",
								"type": "default"
							}
						],
						"body": {
							"mode": "urlencoded",
							"urlencoded": [
								{
									"key": "price",
									"value": "1000",
									"type": "default"
								},
								{
									"key": "quantity",
									"value": "10",
									"type": "default"
								},
								{
									"key": "payment_amount",
									"value": "10000000",
									"type": "default"
								},
								{
									"key": "product_id",
									"value": "11",
									"type": "default"
								}
							]
						},
						"url": {
							"raw": "{{host}}/api/transaction/update/21",
							"host": [
								"{{host}}"
							],
							"path": [
								"api",
								"transaction",
								"update",
								"21"
							]
						}
					},
					"response": []
				},
				{
					"name": "Transaction Delete",
					"protocolProfileBehavior": {
						"disabledSystemHeaders": {
							"accept": true
						}
					},
					"request": {
						"auth": {
							"type": "bearer",
							"bearer": [
								{
									"key": "token",
									"value": "{{token}}",
									"type": "string"
								}
							]
						},
						"method": "POST",
						"header": [
							{
								"key": "Accept",
								"value": "application/json",
								"type": "default"
							}
						],
						"body": {
							"mode": "urlencoded",
							"urlencoded": [
								{
									"key": "id",
									"value": "41",
									"type": "default"
								}
							]
						},
						"url": {
							"raw": "{{host}}/api/transaction/delete",
							"host": [
								"{{host}}"
							],
							"path": [
								"api",
								"transaction",
								"delete"
							]
						}
					},
					"response": []
				},
				{
					"name": "Transaction Show",
					"protocolProfileBehavior": {
						"disabledSystemHeaders": {
							"accept": true
						}
					},
					"request": {
						"auth": {
							"type": "bearer",
							"bearer": [
								{
									"key": "token",
									"value": "{{token}}",
									"type": "string"
								}
							]
						},
						"method": "GET",
						"header": [
							{
								"key": "Accept",
								"value": "application/json",
								"type": "default"
							}
						],
						"url": {
							"raw": "{{host}}/api/transaction/show/1",
							"host": [
								"{{host}}"
							],
							"path": [
								"api",
								"transaction",
								"show",
								"1"
							]
						}
					},
					"response": []
				}
			]
		},
		{
			"name": "Login",
			"request": {
				"method": "POST",
				"header": [],
				"body": {
					"mode": "urlencoded",
					"urlencoded": [
						{
							"key": "email",
							"value": "user@datautama.com",
							"type": "default"
						},
						{
							"key": "password",
							"value": "password",
							"type": "default"
						}
					]
				},
				"url": {
					"raw": "{{host}}/api/login",
					"host": [
						"{{host}}"
					],
					"path": [
						"api",
						"login"
					]
				}
			},
			"response": []
		},
		{
			"name": "Users",
			"protocolProfileBehavior": {
				"disabledSystemHeaders": {
					"accept": true
				}
			},
			"request": {
				"auth": {
					"type": "bearer",
					"bearer": [
						{
							"key": "token",
							"value": "{{token}}",
							"type": "string"
						}
					]
				},
				"method": "GET",
				"header": [
					{
						"key": "Accept",
						"value": "application/json",
						"type": "default"
					}
				],
				"url": {
					"raw": "{{host}}/api/user",
					"host": [
						"{{host}}"
					],
					"path": [
						"api",
						"user"
					]
				}
			},
			"response": []
		},
		{
			"name": "Logout",
			"request": {
				"auth": {
					"type": "bearer",
					"bearer": [
						{
							"key": "token",
							"value": "eyJ0eXAiOiJKV1QiLCJhbGciOiJIUzI1NiJ9.eyJpc3MiOiJodHRwOi8vdGVzdF9kYXRhdXRhbWEudGVzdC9hcGkvbG9naW4iLCJpYXQiOjE2NzgzODQ5MzgsImV4cCI6MTY3ODM4ODUzOCwibmJmIjoxNjc4Mzg0OTM4LCJqdGkiOiJDak5Ba0FyZDdtd1pPaHc4Iiwic3ViIjoiMSIsInBydiI6IjIzYmQ1Yzg5NDlmNjAwYWRiMzllNzAxYzQwMDg3MmRiN2E1OTc2ZjcifQ.rCuPev5Tc3F01QZmV-Sw3hU2seUGo4Un9cfmiMdWuY0",
							"type": "string"
						}
					]
				},
				"method": "POST",
				"header": [],
				"url": {
					"raw": "{{host}}/api/auth/logout",
					"host": [
						"{{host}}"
					],
					"path": [
						"api",
						"auth",
						"logout"
					]
				}
			},
			"response": []
		},
		{
			"name": "Register",
			"protocolProfileBehavior": {
				"disabledSystemHeaders": {
					"accept": true
				}
			},
			"request": {
				"method": "POST",
				"header": [
					{
						"key": "Accept",
						"value": "application/json",
						"type": "default"
					}
				],
				"body": {
					"mode": "urlencoded",
					"urlencoded": [
						{
							"key": "name",
							"value": "cok cok",
							"type": "default"
						},
						{
							"key": "email",
							"value": "cok@jancok.cok",
							"type": "default"
						},
						{
							"key": "password",
							"value": "password",
							"type": "default"
						}
					]
				},
				"url": {
					"raw": "{{host}}/api/register",
					"host": [
						"{{host}}"
					],
					"path": [
						"api",
						"register"
					]
				}
			},
			"response": []
		}
	],
	"event": [
		{
			"listen": "prerequest",
			"script": {
				"type": "text/javascript",
				"exec": [
					""
				]
			}
		},
		{
			"listen": "test",
			"script": {
				"type": "text/javascript",
				"exec": [
					""
				]
			}
		}
	],
	"variable": [
		{
			"key": "token",
			"value": "",
			"type": "default"
		},
		{
			"key": "host",
			"value": "",
			"type": "default"
		}
	]
}